Napoleon GREEN
1 (JK/SP) 1-0 Atreyu
2 (CH/LP) 2-0 Chop!
3 (SP/JB) 2-1 Atreyu!
4 (FL/SN) 2 all
5 (UC/JB) 3 Kyo!
6 (HK/JK) 4-3 Kyo
7 (JB/LS) 4-3 Kyo
8 (LS/SN) 5-4 Kyo
( (FINAL: Kyo Mori .def. Atreyu Carter, 5-3 in 8, DOF)
