Ajia Argos!
1 (JB/HK) 1-0 Bob!
2 (Leap/SW) 1+-0 Bob!
3 (JB/JK) 2-0 Bob!
4 (JK/DO) 2-+ Bob!
5 (Spin/SW) 2-1 Bob!
6 (JB/Snap) 3-1 Bob!
7 (Snap/FL) 4-1 Demi!
8 (JBx2)
DemiBob .def. Little Cookie, 5-2 in 8. DoF.