1 (FDO/JB) 1-0 Mel!
2 (JB/Snap) 2-0 Mel!
3 (FDO/JB) 3-0 Mel!
4 (FeFL/JK) 3-0 Mel!
5 (SW/CH) 4-0 Mel!
6 (FDO/SW) 4-1 Mel!
7 (FDU/FDO) 4-1 Mel!
8 (FDO/FAB) 4-1 Mel!
9 (JB/FL) 4-2 Mel!
1 (SWx2) 5-3 Mel
Fourth .def. Koy, 5-3 in 10. DoF.