Peaches Nation
1 (MB/RF) 1.0-0.0 Grace
2 (MW/FDP) 2.0-0.0 Grace
3 (RF/WB) 3.0-0.0 Grace
4 (SH/FT) 3.0-0.5 Grace
5 (AR/MW) 4.0-0.5 Grace
6 (MW/FMB) 5.5-0.5 Grace
( ( Awkward .def. Whitemane, 5.5 - 0.5 in 6 DoM )
