Amanda Lux
C (Thrust / Hight Cut. 1-0, The Boy.)
C (Slash / Fancy Duck. 2-0, The Boy.)
C (low Cut / Low Cut. 2-0, The Boy.)
C (High Cut / Stop Hit. 3-0, The Boy.)
C (Fancy Sidestep / Circular Parry. 3-1, the Boy.)
C (Fancy Circular Parry / Low Cut. 3-2, The Boy.)
C (Stop Hit / Thrust. 3-3.)
C (High Cut / High Cut. 3-3.)
C (Thrust / Slash. 403, The Queen.)
C (Low Cut / Hight Cut. 5-4, The Queen.)
( (The Queen .def. The Boy, 5-4 in 10, DoS.)
