Sandy
Shale
1 LS FL 0 1
2 SN FAB 1 1
3 FDO LS 1 2
4 FL FDO 1 3
M FDU FAB 1 3
6 JB SN 2 3
7 LS JK 2 3
8 SN DO 2 3
9 DO FL 2 3
10 JB DU 2 3
11 FDO JB 3 3
12 LS CH 4 3
13 JB DO 4 3
14 FDO LP 4 3
15 FL FL 4 3