Sadie Roller
C (JB/LS) 1 Crunchem
C (CH/JK) 1 All
C (JB/LS) 2-1 Crunchem
C (AB/JB) 2-1 Crunchem
C (LS/AB) 3-1 Crunchem
C (FL/FL) 3-1 Crunchem
C (CH/JB) 4-2 Crunchem
C (LS/FL) 5-2 Crunchem
( ((Final: Crunchem .def. Ekthbjlgke, 5-2 in 8. DoF))
