Sadie Yeah
1 (DO/JB) 0 All
2 (LS/DO) 1 Ekthbjlgke
3 (JB/AB) 1-0 Ekthbjlgke
4 (AB/SN) 1-0 Ekthbjlgke
5 (JB/DO) 1-0 Ekthbjlgke
6 (FL/LS) 1 All
7 (JB/DO) 1-1 Delahada
8 (CH/JB) 2 All
9 (JK/SN) 3-2 Ekthbjlgke
1 (FL/JB) 4-2 Ekthbjlgke
1 (SN/DO) 4-2 Ekthbjlgke
1 (LS/SP) 5-2 Ekthbjlgke
( ((Final: Ekthbjlgke .def. Delahada, 5-2 in 12. DoF))
