E ( Dodge / Flip ) +0 Gothrak
E ( Duck / Jab ) 1 Gothrak
E ( Snap / Sweep ) 2 Gothrak
E ( Jumpkick / Dodge ) 2-+0 Gothrak
E ( Sweep / Flip ) 3 Gothrak
E ( Jab x2 ) 4-1 Gothrak
E ( Chop / Sweep ) 4-2 Gothrak
E ( Jab x2 ) 5-3 Gothrak
( ( Gothrak .def. Zynn, 5-3 in 8 DOF )
