Lacey PIKACHU
1 ( Sweep / Jab ) 1 Grace
2 ( AB / Flip ) 2 Grace
3 ( Jab / F Dodge ) 3 Grace
4 ( Snap / Spin ) 1-3 Grace
5 ( Duck / Jab ) +1-3 Grace
6 ( Sweep / Jumpkick ) 1-3 Grace
7 ( Flip / Fdodge ) 1-4 Grace
F ( Jab x2 )
( ( Awkward .def. Ekthbjlgke, 5-2 in 8 DOF )
