Misty A
U (SS/LC, 1-0 Red)
S (TH/FSS, 2-0 Red)
H (LP/LC, 3-0 Red)
O (LC/SH, 3-1 Red)
I (HC/FSS, 3-2 Red)
U (LC/TH, 4-2 Red)
I (TH/FLP, 5-2 Red)
( ((Final: Red urThorne .def. DemiBob, 5-2 in 7 rounds, DoS))
S (Sweep/Snapkick, 1-0 Sandy)
H (Jab/FA Dodge, 2-0 Sandy)
* (Jumpkick/Snapkick, 2-1 Sandy)
* (Jab/FE Flip, 2-1 Sandy)
* (Chop/Jab, 3-2 Sandy)
* (Armblock/FA Dodge, 3-2 Sandy)
S (Jab/Snapkick, 3 all)
I (Jumpkick/Sweep, 3 all)
* (Spinkick/Jab, 4-3 Sandy)
* (Dodge/Flip, 4-3+ Sandy)
* (Armblock/Jab, 4 all)
* (Snapkick x2, 5 all)
* (Flip/Jab, 6-5 Sal)
( ((Final: Delahada .def. Sandalio del Saenz, 6-5 in 13 rounds, DoF))
