Kheldar 5
J (jab/snap) 1-0
2 (chop/jab)
( (sorry dodge/jk)
J (chop/snap) 3-1
3 (sweep/flip)
M (jab x2) 4-3
B (jk x2) 4-3 John
S (flip/hook) 4 all
5 (jab x2)
H (sweep/uc) 6-5 Saieniel
( (Saieniel .def. JohnCole, 6-5 in 10 DoF)
